[api-updater (non-obsolete-error-filter)] 9-9-2021 19:08:41 : Starting D:/Unity/2020.3.17f1/Editor/Data/Tools/ScriptUpdater/APIUpdater.NonObsoleteApiUpdaterDetector.exe
[api-updater (non-obsolete-error-filter)] 
----------------------------------
jit/startup time      : 1370,0475ms
moved types parse time: 108ms
candidates parse time : 2ms
C# parse time         : 901ms
candidates check time : 104ms
console write time    : 10ms

[api-updater (non-obsolete-error-filter)] 10-9-2021 17:21:50 : Starting D:/Unity/2020.3.17f1/Editor/Data/Tools/ScriptUpdater/APIUpdater.NonObsoleteApiUpdaterDetector.exe
[api-updater (non-obsolete-error-filter)] 
----------------------------------
jit/startup time      : 1281,9962ms
moved types parse time: 77ms
candidates parse time : 2ms
C# parse time         : 787ms
candidates check time : 57ms
console write time    : 10ms

[api-updater (non-obsolete-error-filter)] 11-9-2021 15:47:22 : Starting D:/Unity/2020.3.17f1/Editor/Data/Tools/ScriptUpdater/APIUpdater.NonObsoleteApiUpdaterDetector.exe
[api-updater (non-obsolete-error-filter)] 
----------------------------------
jit/startup time      : 1173,2136ms
moved types parse time: 77ms
candidates parse time : 2ms
C# parse time         : 626ms
candidates check time : 38ms
console write time    : 0ms

[api-updater (non-obsolete-error-filter)] 11-9-2021 21:26:55 : Starting D:/Unity/2020.3.17f1/Editor/Data/Tools/ScriptUpdater/APIUpdater.NonObsoleteApiUpdaterDetector.exe
[api-updater (non-obsolete-error-filter)] 
----------------------------------
jit/startup time      : 1062,4561ms
moved types parse time: 69ms
candidates parse time : 1ms
C# parse time         : 693ms
candidates check time : 45ms
console write time    : 0ms

[api-updater (non-obsolete-error-filter)] 11-9-2021 21:28:48 : Starting D:/Unity/2020.3.17f1/Editor/Data/Tools/ScriptUpdater/APIUpdater.NonObsoleteApiUpdaterDetector.exe
[api-updater (non-obsolete-error-filter)] 
----------------------------------
jit/startup time      : 102,0135ms
moved types parse time: 95ms
candidates parse time : 2ms
C# parse time         : 325ms
candidates check time : 45ms
console write time    : 0ms

[api-updater (non-obsolete-error-filter)] 11-9-2021 21:29:09 : Starting D:/Unity/2020.3.17f1/Editor/Data/Tools/ScriptUpdater/APIUpdater.NonObsoleteApiUpdaterDetector.exe
[api-updater (non-obsolete-error-filter)] 
----------------------------------
jit/startup time      : 93,9913ms
moved types parse time: 63ms
candidates parse time : 1ms
C# parse time         : 316ms
candidates check time : 61ms
console write time    : 0ms

[api-updater (non-obsolete-error-filter)] 11-9-2021 21:29:28 : Starting D:/Unity/2020.3.17f1/Editor/Data/Tools/ScriptUpdater/APIUpdater.NonObsoleteApiUpdaterDetector.exe
[api-updater (non-obsolete-error-filter)] 
----------------------------------
jit/startup time      : 93,4822ms
moved types parse time: 71ms
candidates parse time : 2ms
C# parse time         : 333ms
candidates check time : 50ms
console write time    : 0ms

[api-updater (non-obsolete-error-filter)] 11-9-2021 21:33:29 : Starting D:/Unity/2020.3.17f1/Editor/Data/Tools/ScriptUpdater/APIUpdater.NonObsoleteApiUpdaterDetector.exe
[api-updater (non-obsolete-error-filter)] 
----------------------------------
jit/startup time      : 99,9979ms
moved types parse time: 64ms
candidates parse time : 1ms
C# parse time         : 253ms
candidates check time : 46ms
console write time    : 0ms

[api-updater (non-obsolete-error-filter)] 11-9-2021 21:34:05 : Starting D:/Unity/2020.3.17f1/Editor/Data/Tools/ScriptUpdater/APIUpdater.NonObsoleteApiUpdaterDetector.exe
[api-updater (non-obsolete-error-filter)] 
----------------------------------
jit/startup time      : 95,0023ms
moved types parse time: 109ms
candidates parse time : 2ms
C# parse time         : 314ms
candidates check time : 51ms
console write time    : 0ms

[api-updater (non-obsolete-error-filter)] 11-9-2021 21:34:10 : Starting D:/Unity/2020.3.17f1/Editor/Data/Tools/ScriptUpdater/APIUpdater.NonObsoleteApiUpdaterDetector.exe
[api-updater (non-obsolete-error-filter)] 
----------------------------------
jit/startup time      : 106,9954ms
moved types parse time: 84ms
candidates parse time : 2ms
C# parse time         : 355ms
candidates check time : 55ms
console write time    : 0ms

[api-updater (non-obsolete-error-filter)] 11-9-2021 23:09:08 : Starting D:/Unity/2020.3.17f1/Editor/Data/Tools/ScriptUpdater/APIUpdater.NonObsoleteApiUpdaterDetector.exe
[api-updater (non-obsolete-error-filter)] 
----------------------------------
jit/startup time      : 148,9934ms
moved types parse time: 69ms
candidates parse time : 1ms
C# parse time         : 276ms
candidates check time : 81ms
console write time    : 0ms

[api-updater (non-obsolete-error-filter)] 11-9-2021 23:16:56 : Starting D:/Unity/2020.3.17f1/Editor/Data/Tools/ScriptUpdater/APIUpdater.NonObsoleteApiUpdaterDetector.exe
[api-updater (non-obsolete-error-filter)] 
----------------------------------
jit/startup time      : 95,9926ms
moved types parse time: 78ms
candidates parse time : 2ms
C# parse time         : 269ms
candidates check time : 82ms
console write time    : 0ms

[api-updater (non-obsolete-error-filter)] 11-9-2021 23:18:28 : Starting D:/Unity/2020.3.17f1/Editor/Data/Tools/ScriptUpdater/APIUpdater.NonObsoleteApiUpdaterDetector.exe
[api-updater (non-obsolete-error-filter)] 
----------------------------------
jit/startup time      : 95,0027ms
moved types parse time: 64ms
candidates parse time : 2ms
C# parse time         : 222ms
candidates check time : 71ms
console write time    : 0ms

[api-updater (non-obsolete-error-filter)] 11-9-2021 23:18:33 : Starting D:/Unity/2020.3.17f1/Editor/Data/Tools/ScriptUpdater/APIUpdater.NonObsoleteApiUpdaterDetector.exe
[api-updater (non-obsolete-error-filter)] 
----------------------------------
jit/startup time      : 105,9969ms
moved types parse time: 96ms
candidates parse time : 2ms
C# parse time         : 378ms
candidates check time : 82ms
console write time    : 1ms

[api-updater (non-obsolete-error-filter)] 12-9-2021 00:24:52 : Starting D:/Unity/2020.3.17f1/Editor/Data/Tools/ScriptUpdater/APIUpdater.NonObsoleteApiUpdaterDetector.exe
[api-updater (non-obsolete-error-filter)] 
----------------------------------
jit/startup time      : 121,0002ms
moved types parse time: 67ms
candidates parse time : 2ms
C# parse time         : 375ms
candidates check time : 67ms
console write time    : 1ms

[api-updater (non-obsolete-error-filter)] 12-9-2021 00:26:16 : Starting D:/Unity/2020.3.17f1/Editor/Data/Tools/ScriptUpdater/APIUpdater.NonObsoleteApiUpdaterDetector.exe
[api-updater (non-obsolete-error-filter)] 
----------------------------------
jit/startup time      : 93,9944ms
moved types parse time: 62ms
candidates parse time : 2ms
C# parse time         : 346ms
candidates check time : 60ms
console write time    : 1ms

[api-updater (non-obsolete-error-filter)] 12-9-2021 00:26:27 : Starting D:/Unity/2020.3.17f1/Editor/Data/Tools/ScriptUpdater/APIUpdater.NonObsoleteApiUpdaterDetector.exe
[api-updater (non-obsolete-error-filter)] 
----------------------------------
jit/startup time      : 100,9958ms
moved types parse time: 69ms
candidates parse time : 1ms
C# parse time         : 356ms
candidates check time : 60ms
console write time    : 1ms

[api-updater (non-obsolete-error-filter)] 12-9-2021 00:26:59 : Starting D:/Unity/2020.3.17f1/Editor/Data/Tools/ScriptUpdater/APIUpdater.NonObsoleteApiUpdaterDetector.exe
[api-updater (non-obsolete-error-filter)] 
----------------------------------
jit/startup time      : 93,996ms
moved types parse time: 65ms
candidates parse time : 1ms
C# parse time         : 359ms
candidates check time : 60ms
console write time    : 0ms

[api-updater (non-obsolete-error-filter)] 12-9-2021 00:27:10 : Starting D:/Unity/2020.3.17f1/Editor/Data/Tools/ScriptUpdater/APIUpdater.NonObsoleteApiUpdaterDetector.exe
[api-updater (non-obsolete-error-filter)] 
----------------------------------
jit/startup time      : 101,9968ms
moved types parse time: 75ms
candidates parse time : 2ms
C# parse time         : 378ms
candidates check time : 58ms
console write time    : 0ms

[api-updater (non-obsolete-error-filter)] 15-9-2021 09:09:31 : Starting C:/Program Files/Unity/Hub/Editor/2020.3.17f1/Editor/Data/Tools/ScriptUpdater/APIUpdater.NonObsoleteApiUpdaterDetector.exe
[api-updater (non-obsolete-error-filter)] 
----------------------------------
jit/startup time      : 836,8868ms
moved types parse time: 67ms
candidates parse time : 1ms
C# parse time         : 568ms
candidates check time : 33ms
console write time    : 0ms

[api-updater (non-obsolete-error-filter)] 9/22/2021 10:15:41 AM : Starting C:/Program Files/Unity/Hub/Editor/2020.3.17f1/Editor/Data/Tools/ScriptUpdater/APIUpdater.NonObsoleteApiUpdaterDetector.exe
[api-updater (non-obsolete-error-filter)] 
----------------------------------
jit/startup time      : 145.9667ms
moved types parse time: 39ms
candidates parse time : 2ms
C# parse time         : 190ms
candidates check time : 34ms
console write time    : 0ms

[api-updater (non-obsolete-error-filter)] 9/27/2021 2:40:12 PM : Starting C:/Program Files/Unity/Hub/Editor/2020.3.17f1/Editor/Data/Tools/ScriptUpdater/APIUpdater.NonObsoleteApiUpdaterDetector.exe
[api-updater (non-obsolete-error-filter)] 
----------------------------------
jit/startup time      : 4962.6432ms
moved types parse time: 44ms
candidates parse time : 1ms
C# parse time         : 173ms
candidates check time : 31ms
console write time    : 0ms

[api-updater (non-obsolete-error-filter)] 9/27/2021 2:44:39 PM : Starting C:/Program Files/Unity/Hub/Editor/2020.3.17f1/Editor/Data/Tools/ScriptUpdater/APIUpdater.NonObsoleteApiUpdaterDetector.exe
[api-updater (non-obsolete-error-filter)] 
----------------------------------
jit/startup time      : 63.0139ms
moved types parse time: 39ms
candidates parse time : 1ms
C# parse time         : 147ms
candidates check time : 31ms
console write time    : 0ms

[api-updater (non-obsolete-error-filter)] 1-10-2021 11:19:13 : Starting D:/Unity/2020.3.17f1/Editor/Data/Tools/ScriptUpdater/APIUpdater.NonObsoleteApiUpdaterDetector.exe
[api-updater (non-obsolete-error-filter)] 
----------------------------------
jit/startup time      : 1403,9968ms
moved types parse time: 80ms
candidates parse time : 1ms
C# parse time         : 956ms
candidates check time : 80ms
console write time    : 14ms

[api-updater (non-obsolete-error-filter)] 1-10-2021 13:03:12 : Starting D:/Unity/2020.3.17f1/Editor/Data/Tools/ScriptUpdater/APIUpdater.NonObsoleteApiUpdaterDetector.exe
[api-updater (non-obsolete-error-filter)] 
----------------------------------
jit/startup time      : 178,9987ms
moved types parse time: 95ms
candidates parse time : 1ms
C# parse time         : 339ms
candidates check time : 46ms
console write time    : 0ms

[api-updater (non-obsolete-error-filter)] 1-10-2021 13:03:42 : Starting D:/Unity/2020.3.17f1/Editor/Data/Tools/ScriptUpdater/APIUpdater.NonObsoleteApiUpdaterDetector.exe
[api-updater (non-obsolete-error-filter)] 
----------------------------------
jit/startup time      : 173,0038ms
moved types parse time: 82ms
candidates parse time : 2ms
C# parse time         : 393ms
candidates check time : 60ms
console write time    : 1ms

[api-updater (non-obsolete-error-filter)] 10/4/2021 4:16:19 PM : Starting C:/Program Files/Unity/Hub/Editor/2020.3.17f1/Editor/Data/Tools/ScriptUpdater/APIUpdater.NonObsoleteApiUpdaterDetector.exe
[api-updater (non-obsolete-error-filter)] 
----------------------------------
jit/startup time      : 5154.5433ms
moved types parse time: 44ms
candidates parse time : 1ms
C# parse time         : 193ms
candidates check time : 38ms
console write time    : 0ms

[api-updater (non-obsolete-error-filter)] 11-10-2021 12:31:35 : Starting C:/Program Files/Unity/Hub/Editor/2020.3.17f1/Editor/Data/Tools/ScriptUpdater/APIUpdater.NonObsoleteApiUpdaterDetector.exe
[api-updater (non-obsolete-error-filter)] 
----------------------------------
jit/startup time      : 537,6925ms
moved types parse time: 47ms
candidates parse time : 1ms
C# parse time         : 250ms
candidates check time : 39ms
console write time    : 0ms

[api-updater (non-obsolete-error-filter)] 11-10-2021 12:38:19 : Starting C:/Program Files/Unity/Hub/Editor/2020.3.17f1/Editor/Data/Tools/ScriptUpdater/APIUpdater.NonObsoleteApiUpdaterDetector.exe
[api-updater (non-obsolete-error-filter)] 
----------------------------------
jit/startup time      : 60,0224ms
moved types parse time: 41ms
candidates parse time : 1ms
C# parse time         : 164ms
candidates check time : 36ms
console write time    : 0ms

[api-updater (non-obsolete-error-filter)] 12-10-2021 11:27:32 : Starting C:/Program Files/Unity/Hub/Editor/2020.3.17f1/Editor/Data/Tools/ScriptUpdater/APIUpdater.NonObsoleteApiUpdaterDetector.exe
[api-updater (non-obsolete-error-filter)] 
----------------------------------
jit/startup time      : 651,977ms
moved types parse time: 59ms
candidates parse time : 1ms
C# parse time         : 225ms
candidates check time : 32ms
console write time    : 0ms

[api-updater (non-obsolete-error-filter)] 12-10-2021 20:19:32 : Starting D:/Unity/2020.3.17f1/Editor/Data/Tools/ScriptUpdater/APIUpdater.NonObsoleteApiUpdaterDetector.exe
[api-updater (non-obsolete-error-filter)] 
----------------------------------
jit/startup time      : 1429,5861ms
moved types parse time: 73ms
candidates parse time : 1ms
C# parse time         : 793ms
candidates check time : 62ms
console write time    : 16ms

[api-updater (non-obsolete-error-filter)] 10/14/2021 1:36:17 PM : Starting C:/Program Files/Unity/Hub/Editor/2020.3.17f1/Editor/Data/Tools/ScriptUpdater/APIUpdater.NonObsoleteApiUpdaterDetector.exe
[api-updater (non-obsolete-error-filter)] 
----------------------------------
jit/startup time      : 3337.4372ms
moved types parse time: 44ms
candidates parse time : 1ms
C# parse time         : 172ms
candidates check time : 42ms
console write time    : 0ms

[api-updater (non-obsolete-error-filter)] 10/15/2021 1:49:26 PM : Starting C:/Program Files/Unity/Hub/Editor/2020.3.17f1/Editor/Data/Tools/ScriptUpdater/APIUpdater.NonObsoleteApiUpdaterDetector.exe
[api-updater (non-obsolete-error-filter)] 
----------------------------------
jit/startup time      : 1175.9993ms
moved types parse time: 45ms
candidates parse time : 1ms
C# parse time         : 204ms
candidates check time : 45ms
console write time    : 0ms

[api-updater (non-obsolete-error-filter)] 10/15/2021 1:53:46 PM : Starting C:/Program Files/Unity/Hub/Editor/2020.3.17f1/Editor/Data/Tools/ScriptUpdater/APIUpdater.NonObsoleteApiUpdaterDetector.exe
[api-updater (non-obsolete-error-filter)] 
----------------------------------
jit/startup time      : 80.0185ms
moved types parse time: 42ms
candidates parse time : 1ms
C# parse time         : 169ms
candidates check time : 35ms
console write time    : 0ms

[api-updater (non-obsolete-error-filter)] 16-10-2021 00:52:39 : Starting D:/Unity/2020.3.17f1/Editor/Data/Tools/ScriptUpdater/APIUpdater.NonObsoleteApiUpdaterDetector.exe
[api-updater (non-obsolete-error-filter)] 
----------------------------------
jit/startup time      : 1343,9942ms
moved types parse time: 72ms
candidates parse time : 1ms
C# parse time         : 1111ms
candidates check time : 72ms
console write time    : 13ms

[api-updater (non-obsolete-error-filter)] 17-10-2021 17:38:46 : Starting D:/Unity/2020.3.17f1/Editor/Data/Tools/ScriptUpdater/APIUpdater.NonObsoleteApiUpdaterDetector.exe
[api-updater (non-obsolete-error-filter)] 
----------------------------------
jit/startup time      : 1430,8289ms
moved types parse time: 72ms
candidates parse time : 2ms
C# parse time         : 864ms
candidates check time : 106ms
console write time    : 18ms

[api-updater (non-obsolete-error-filter)] 19-10-2021 16:13:50 : Starting C:/Program Files/Unity/Hub/Editor/2020.3.17f1/Editor/Data/Tools/ScriptUpdater/APIUpdater.NonObsoleteApiUpdaterDetector.exe
[api-updater (non-obsolete-error-filter)] 
----------------------------------
jit/startup time      : 519,148ms
moved types parse time: 45ms
candidates parse time : 1ms
C# parse time         : 241ms
candidates check time : 30ms
console write time    : 0ms

[api-updater (non-obsolete-error-filter)] 10/20/2021 3:13:33 PM : Starting C:/Program Files/Unity/Hub/Editor/2020.3.17f1/Editor/Data/Tools/ScriptUpdater/APIUpdater.NonObsoleteApiUpdaterDetector.exe
[api-updater (non-obsolete-error-filter)] 
----------------------------------
jit/startup time      : 3289.404ms
moved types parse time: 45ms
candidates parse time : 1ms
C# parse time         : 198ms
candidates check time : 30ms
console write time    : 0ms

[api-updater (non-obsolete-error-filter)] 10/22/2021 2:37:11 PM : Starting C:/Program Files/Unity/Hub/Editor/2020.3.17f1/Editor/Data/Tools/ScriptUpdater/APIUpdater.NonObsoleteApiUpdaterDetector.exe
[api-updater (non-obsolete-error-filter)] 
----------------------------------
jit/startup time      : 430.6003ms
moved types parse time: 42ms
candidates parse time : 1ms
C# parse time         : 165ms
candidates check time : 41ms
console write time    : 0ms

[api-updater (non-obsolete-error-filter)] 2-11-2021 13:20:37 : Starting C:/Program Files/Unity/Hub/Editor/2020.3.17f1/Editor/Data/Tools/ScriptUpdater/APIUpdater.NonObsoleteApiUpdaterDetector.exe
[api-updater (non-obsolete-error-filter)] 
----------------------------------
jit/startup time      : 896,3189ms
moved types parse time: 67ms
candidates parse time : 1ms
C# parse time         : 378ms
candidates check time : 62ms
console write time    : 1ms

[api-updater (non-obsolete-error-filter)] 4-11-2021 15:52:07 : Starting D:/Unity/2020.3.17f1/Editor/Data/Tools/ScriptUpdater/APIUpdater.NonObsoleteApiUpdaterDetector.exe
[api-updater (non-obsolete-error-filter)] 
----------------------------------
jit/startup time      : 1649,9906ms
moved types parse time: 89ms
candidates parse time : 2ms
C# parse time         : 1135ms
candidates check time : 75ms
console write time    : 11ms

[api-updater (non-obsolete-error-filter)] 5-11-2021 09:44:25 : Starting D:/Unity/2020.3.17f1/Editor/Data/Tools/ScriptUpdater/APIUpdater.NonObsoleteApiUpdaterDetector.exe
[api-updater (non-obsolete-error-filter)] 
----------------------------------
jit/startup time      : 516,5834ms
moved types parse time: 81ms
candidates parse time : 2ms
C# parse time         : 364ms
candidates check time : 112ms
console write time    : 1ms

[api-updater (non-obsolete-error-filter)] 11/9/2021 7:20:25 PM : Starting C:/Program Files/Unity/Hub/Editor/2020.3.17f1/Editor/Data/Tools/ScriptUpdater/APIUpdater.NonObsoleteApiUpdaterDetector.exe
[api-updater (non-obsolete-error-filter)] 
----------------------------------
jit/startup time      : 1471.5067ms
moved types parse time: 44ms
candidates parse time : 1ms
C# parse time         : 179ms
candidates check time : 38ms
console write time    : 0ms

