%YAML 1.1
%TAG !u! tag:unity3d.com,2011:
--- !u!114 &11400000
MonoBehaviour:
  m_ObjectHideFlags: 0
  m_CorrespondingSourceObject: {fileID: 0}
  m_PrefabInstance: {fileID: 0}
  m_PrefabAsset: {fileID: 0}
  m_GameObject: {fileID: 0}
  m_Enabled: 1
  m_EditorHideFlags: 0
  m_Script: {fileID: 11500000, guid: 9241598fa88a3fb4792d87bf624d7a1d, type: 3}
  m_Name: YouCanRunButYouCantHide
  m_EditorClassIdentifier: 
  upgradeImage: {fileID: 21300000, guid: cdb74358c6dac524db9521811c53da51, type: 3}
  upgradeTitle: "You can run, but you can\u2019t hide"
  upgradeInfo: +1 range
  upgradeCost: 100
  range: 1
  fireRate: 0
  canTargetCamo: 0
  sellValue: 60
  fireAnimationMultiplier: 0
  ammoInfo:
    prefabKey: 
    impactEffectKey: 
    impactSoundName: 
  damage: 0
  explosionRadius: 0
  ricochet: 0
  shootAmount: 0
  slowMultiplier: 0
  canSlowHeavy: 0
  canSlowBoss: 0
  dotEffect:
    dotEffectKey: 
    damageTotal: 0
    executionTime: 0
    dotEffectName: 0
  buffAmountTowersInRange:
    statName: 0
    amount: 0
