%YAML 1.1
%TAG !u! tag:unity3d.com,2011:
--- !u!114 &11400000
MonoBehaviour:
  m_ObjectHideFlags: 0
  m_CorrespondingSourceObject: {fileID: 0}
  m_PrefabInstance: {fileID: 0}
  m_PrefabAsset: {fileID: 0}
  m_GameObject: {fileID: 0}
  m_Enabled: 1
  m_EditorHideFlags: 0
  m_Script: {fileID: 11500000, guid: c513a7ec2f4f5c04aa545ec42b16555f, type: 3}
  m_Name: Explosion1
  m_EditorClassIdentifier: 
  soundName: Explosion1
  audioClip: {fileID: 8300000, guid: f4656e9e97c756d40a8bd3d206f85882, type: 3}
  audioMixerGroup: {fileID: 5251266740477346581, guid: 7913f66d8567a2248b861379c0d1d016, type: 2}
  volume: 0.35
  pitch: 1.5
  spatialBlend: 0.9
  loop: 0
