%YAML 1.1
%TAG !u! tag:unity3d.com,2011:
--- !u!21 &2100000
Material:
  serializedVersion: 6
  m_ObjectHideFlags: 0
  m_CorrespondingSourceObject: {fileID: 0}
  m_PrefabInstance: {fileID: 0}
  m_PrefabAsset: {fileID: 0}
  m_Name: WaterMat
  m_Shader: {fileID: 4800000, guid: 5da8b0368ef6e224f81430e29e23cd96, type: 3}
  m_ShaderKeywords: 
  m_LightmapFlags: 5
  m_EnableInstancingVariants: 0
  m_DoubleSidedGI: 0
  m_CustomRenderQueue: -1
  stringTagMap: {}
  disabledShaderPasses: []
  m_SavedProperties:
    serializedVersion: 3
    m_TexEnvs:
    - _Foam:
        m_Texture: {fileID: 0}
        m_Scale: {x: 1, y: 1}
        m_Offset: {x: 0, y: 0}
    - _Normal:
        m_Texture: {fileID: 2800000, guid: fb6566c21f717904f83743a5a76dd0b0, type: 3}
        m_Scale: {x: 20, y: 20}
        m_Offset: {x: 0, y: 0}
    - _Normal2:
        m_Texture: {fileID: 2800000, guid: fd8b85b15dfe0ad4cbbc5613a12722c6, type: 3}
        m_Scale: {x: 1, y: 1}
        m_Offset: {x: 0, y: 0}
    - _TextureSample0:
        m_Texture: {fileID: 2800000, guid: fd8b85b15dfe0ad4cbbc5613a12722c6, type: 3}
        m_Scale: {x: 1, y: 1}
        m_Offset: {x: 0, y: 0}
    - _TextureSample1:
        m_Texture: {fileID: 2800000, guid: e4ec2a92d2183294d9d9be1f20a1fcdf, type: 3}
        m_Scale: {x: 10, y: 10}
        m_Offset: {x: 0, y: 0}
    - _WaterNormal:
        m_Texture: {fileID: 0}
        m_Scale: {x: 2, y: 2}
        m_Offset: {x: 0, y: 0}
    - _texcoord:
        m_Texture: {fileID: 0}
        m_Scale: {x: 1, y: 1}
        m_Offset: {x: 0, y: 0}
    m_Floats:
    - _Depth: 0.98
    - _DepthFalloff: -13
    - _Distortion: 0.2
    - _Float0: 0.0192
    - _Float1: 0.85
    - _Float3: 0.9
    - _Foam: 1.79
    - _FoamDepth: 0.6
    - _FoamFalloff: -50
    - _FoamPower: 4
    - _FoamSmoothness: 0.3
    - _FoamSpecular: 0.3
    - _Foamfalloff: -4
    - _MaskClipValue: 0.5
    - _NormalScale: 0
    - _ShoreDepth: -6.35
    - _ShoreFalloff: -10
    - _Smoothness: 0.9
    - _Specular: 0.1
    - _TessValue: 6
    - _WaterDepth: 0.99
    - _WaterFalloff: -2.3
    - _WaterSmoothness: 0.3
    - _WaterSpecular: 0.3
    - _WavesAmount: 7
    - _WavesAmplitude: 0
    - __dirty: 0
    m_Colors:
    - _Color: {r: 0.4292453, g: 0.7559531, b: 1, a: 1}
    - _Color0: {r: 0, g: 0.6749488, b: 0.8088235, a: 0}
    - _Color1: {r: 0, g: 0.048731543, b: 0.22794023, a: 0}
    - _DeepColor: {r: 0.2511125, g: 0.7187613, b: 0.9339623, a: 1}
    - _ShalowColor: {r: 0.20932718, g: 0.62870073, b: 0.9056604, a: 1}
    - _SpecColor: {r: 1, g: 1, b: 1, a: 1}
  m_BuildTextureStacks: []
