%YAML 1.1
%TAG !u! tag:unity3d.com,2011:
--- !u!114 &11400000
MonoBehaviour:
  m_ObjectHideFlags: 0
  m_CorrespondingSourceObject: {fileID: 0}
  m_PrefabInstance: {fileID: 0}
  m_PrefabAsset: {fileID: 0}
  m_GameObject: {fileID: 0}
  m_Enabled: 1
  m_EditorHideFlags: 0
  m_Script: {fileID: 11500000, guid: 9a2979e1dc11ce14da41b1ce0a2a25d1, type: 3}
  m_Name: Troll
  m_EditorClassIdentifier: 
  enemyKey: Troll
  standardSpeed: 0.8
  maxHp: 120
  maxArmor: 10
  lootAmount: 70
  enemyType: 2
  hpBarYOffset: 2
  hpBar: {fileID: 11400000, guid: eb826e4b0abef8c4bbd8b3dc5225808d, type: 2}
