%YAML 1.1
%TAG !u! tag:unity3d.com,2011:
--- !u!114 &11400000
MonoBehaviour:
  m_ObjectHideFlags: 0
  m_CorrespondingSourceObject: {fileID: 0}
  m_PrefabInstance: {fileID: 0}
  m_PrefabAsset: {fileID: 0}
  m_GameObject: {fileID: 0}
  m_Enabled: 1
  m_EditorHideFlags: 0
  m_Script: {fileID: 11500000, guid: 9241598fa88a3fb4792d87bf624d7a1d, type: 3}
  m_Name: MaybeIAmSpeed
  m_EditorClassIdentifier: 
  upgradeImage: {fileID: 21300000, guid: 7d8c2c130105da34cb1f6118a8105bef, type: 3}
  upgradeTitle: Maybe I am speed
  upgradeInfo: +0.1 firerate
  upgradeCost: 250
  range: 0
  fireRate: 0.1
  canTargetCamo: 0
  sellValue: 150
  fireAnimationMultiplier: 0.1
  ammoInfo:
    prefabKey: 
    impactEffectKey: 
    impactSoundName: 
  damage: 0
  explosionRadius: 0
  ricochet: 0
  shootAmount: 0
  slowMultiplier: 0
  canSlowHeavy: 0
  canSlowBoss: 0
  dotEffect:
    dotEffectKey: 
    damageTotal: 0
    executionTime: 0
    dotEffectName: 0
  buffAmountTowersInRange:
    statName: 0
    amount: 0
