%YAML 1.1
%TAG !u! tag:unity3d.com,2011:
--- !u!1 &2848074686437101577
GameObject:
  m_ObjectHideFlags: 0
  m_CorrespondingSourceObject: {fileID: 0}
  m_PrefabInstance: {fileID: 0}
  m_PrefabAsset: {fileID: 0}
  serializedVersion: 6
  m_Component:
  - component: {fileID: 2848074686437101576}
  - component: {fileID: 2848074686437101583}
  m_Layer: 0
  m_Name: SpawnManager
  m_TagString: Untagged
  m_Icon: {fileID: 0}
  m_NavMeshLayer: 0
  m_StaticEditorFlags: 0
  m_IsActive: 1
--- !u!4 &2848074686437101576
Transform:
  m_ObjectHideFlags: 0
  m_CorrespondingSourceObject: {fileID: 0}
  m_PrefabInstance: {fileID: 0}
  m_PrefabAsset: {fileID: 0}
  m_GameObject: {fileID: 2848074686437101577}
  m_LocalRotation: {x: 0, y: 0, z: 0, w: 1}
  m_LocalPosition: {x: 0, y: 0, z: 0}
  m_LocalScale: {x: 1, y: 1, z: 1}
  m_Children: []
  m_Father: {fileID: 0}
  m_RootOrder: 0
  m_LocalEulerAnglesHint: {x: 0, y: 0, z: 0}
--- !u!114 &2848074686437101583
MonoBehaviour:
  m_ObjectHideFlags: 0
  m_CorrespondingSourceObject: {fileID: 0}
  m_PrefabInstance: {fileID: 0}
  m_PrefabAsset: {fileID: 0}
  m_GameObject: {fileID: 2848074686437101577}
  m_Enabled: 1
  m_EditorHideFlags: 0
  m_Script: {fileID: 11500000, guid: 91e512d3eaf1c5b4aa1520edf066ce58, type: 3}
  m_Name: 
  m_EditorClassIdentifier: 
  waveSpawners:
  - {fileID: 0}
  - {fileID: 0}
  routes:
  - RouteParent: {fileID: 0}
    routeWaypoints: []
  - RouteParent: {fileID: 0}
    routeWaypoints: []
  TimeBetweenWaves: 8
  TimeBeforeFirstWave: 2
  LastWaveEnded: 0
  AllActiveEnemies: []
  ActiveNormalEnemies: []
