%YAML 1.1
%TAG !u! tag:unity3d.com,2011:
--- !u!114 &11400000
MonoBehaviour:
  m_ObjectHideFlags: 0
  m_CorrespondingSourceObject: {fileID: 0}
  m_PrefabInstance: {fileID: 0}
  m_PrefabAsset: {fileID: 0}
  m_GameObject: {fileID: 0}
  m_Enabled: 1
  m_EditorHideFlags: 0
  m_Script: {fileID: 11500000, guid: c513a7ec2f4f5c04aa545ec42b16555f, type: 3}
  m_Name: ArcherShoot
  m_EditorClassIdentifier: 
  soundName: ArcherShoot
  audioClip: {fileID: 8300000, guid: 67bc9bf89527e3845b158f586d5e851d, type: 3}
  audioMixerGroup: {fileID: -9181181398835926059, guid: 7913f66d8567a2248b861379c0d1d016, type: 2}
  volume: 1
  pitch: 1.1
  spatialBlend: 0.8
  loop: 0
