%YAML 1.1
%TAG !u! tag:unity3d.com,2011:
--- !u!221 &22100000
AnimatorOverrideController:
  m_ObjectHideFlags: 0
  m_CorrespondingSourceObject: {fileID: 0}
  m_PrefabInstance: {fileID: 0}
  m_PrefabAsset: {fileID: 0}
  m_Name: Troll
  m_Controller: {fileID: 9100000, guid: f5260ff70a8151d40becadc6a40bb284, type: 2}
  m_Clips:
  - m_OriginalClip: {fileID: 7400000, guid: c273e6a115aadd148a2314c0fe4a3bef, type: 2}
    m_OverrideClip: {fileID: 7400000, guid: 11a875e50c3ca2d44ac7c2b53a374aa7, type: 2}
  - m_OriginalClip: {fileID: 7400000, guid: af8f2120c8505e1469741ab026db97c3, type: 2}
    m_OverrideClip: {fileID: 7400000, guid: db559738fcaff23479eb41000b368b8c, type: 2}
