%YAML 1.1
%TAG !u! tag:unity3d.com,2011:
--- !u!114 &11400000
MonoBehaviour:
  m_ObjectHideFlags: 0
  m_CorrespondingSourceObject: {fileID: 0}
  m_PrefabInstance: {fileID: 0}
  m_PrefabAsset: {fileID: 0}
  m_GameObject: {fileID: 0}
  m_Enabled: 1
  m_EditorHideFlags: 0
  m_Script: {fileID: 11500000, guid: 6093dc13f7af70d479393ed026af320f, type: 3}
  m_Name: FireTower
  m_EditorClassIdentifier: 
  towerInfo:
    towerKey: FireTower
    towerName: Fire Tower
    towerUI: {fileID: 11400000, guid: 928d18582cd97084b858262ba5563f08, type: 2}
    fireSoundName: FireballLaunch
  range: 3.5
  fireRate: 0.35
  canTargetCamo: 0
  towerCost: 300
  sellValue: 180
  fireAnimationMultiplier: 1
  ammo: {fileID: 11400000, guid: 695518f0913b2cc45a59a13293a5ec86, type: 2}
  upgrades:
  - upgrades:
    - {fileID: 11400000, guid: b34d7331f67dfaa4f9d358521804ea9f, type: 2}
    - {fileID: 11400000, guid: 22d5cf54d032db943b89f3046ecb5389, type: 2}
    - {fileID: 11400000, guid: 881a2b565ccf5724fb298345b236d5df, type: 2}
    - {fileID: 11400000, guid: 9a212a1404e5dab46b46a7406c25ca9f, type: 2}
  - upgrades:
    - {fileID: 11400000, guid: defe1724be32625448edddc2da64a627, type: 2}
    - {fileID: 11400000, guid: 0a37cecff25ce284e96279f712fac0a6, type: 2}
    - {fileID: 11400000, guid: ab9c1c1d33bdd4a4fb53117fc465991b, type: 2}
    - {fileID: 11400000, guid: 9a212a1404e5dab46b46a7406c25ca9f, type: 2}
  - upgrades:
    - {fileID: 11400000, guid: b78d382a77ea0414596e488dbd8adeeb, type: 2}
    - {fileID: 11400000, guid: 45dcb6bf41fc57842a9149d0330e9003, type: 2}
    - {fileID: 11400000, guid: b535c37bf59c3e247916f8de336c2b59, type: 2}
    - {fileID: 11400000, guid: 9a212a1404e5dab46b46a7406c25ca9f, type: 2}
  canSlowHeavy: 0
  canSlowBoss: 0
