%YAML 1.1
%TAG !u! tag:unity3d.com,2011:
--- !u!114 &11400000
MonoBehaviour:
  m_ObjectHideFlags: 0
  m_CorrespondingSourceObject: {fileID: 0}
  m_PrefabInstance: {fileID: 0}
  m_PrefabAsset: {fileID: 0}
  m_GameObject: {fileID: 0}
  m_Enabled: 1
  m_EditorHideFlags: 0
  m_Script: {fileID: 11500000, guid: 6093dc13f7af70d479393ed026af320f, type: 3}
  m_Name: IceTower
  m_EditorClassIdentifier: 
  towerInfo:
    towerKey: IceTower
    towerName: Ice Tower
    towerUI: {fileID: 11400000, guid: 928d18582cd97084b858262ba5563f08, type: 2}
    fireSoundName: IcePulse
  range: 3.5
  fireRate: 0.4
  canTargetCamo: 0
  towerCost: 500
  sellValue: 300
  fireAnimationMultiplier: 1
  ammo: {fileID: 11400000, guid: fa09b967775c690498e6a3992865a112, type: 2}
  upgrades:
  - upgrades:
    - {fileID: 11400000, guid: 2e879956b379fc64c95241552fe954fd, type: 2}
    - {fileID: 11400000, guid: 30ad0673815e6494486710861ffecebf, type: 2}
    - {fileID: 11400000, guid: 9f42f9d8b1ddea240a6ee160350def99, type: 2}
    - {fileID: 11400000, guid: 9a212a1404e5dab46b46a7406c25ca9f, type: 2}
  - upgrades:
    - {fileID: 11400000, guid: 050359abda1a91c4aac21dc42486420d, type: 2}
    - {fileID: 11400000, guid: 3df5265cc1f0674489f1a6e71a796c45, type: 2}
    - {fileID: 11400000, guid: 27adfc51bcd8bc646bebc228f5450afc, type: 2}
    - {fileID: 11400000, guid: 9a212a1404e5dab46b46a7406c25ca9f, type: 2}
  - upgrades:
    - {fileID: 11400000, guid: a8a55df91c3af7244951f03dc2c6ea62, type: 2}
    - {fileID: 11400000, guid: d594d196a81392e48ad7b6428350dce1, type: 2}
    - {fileID: 11400000, guid: dcdb88490a303034ab569573d65f546d, type: 2}
    - {fileID: 11400000, guid: 9a212a1404e5dab46b46a7406c25ca9f, type: 2}
  canSlowHeavy: 0
  canSlowBoss: 0
