%YAML 1.1
%TAG !u! tag:unity3d.com,2011:
--- !u!114 &11400000
MonoBehaviour:
  m_ObjectHideFlags: 0
  m_CorrespondingSourceObject: {fileID: 0}
  m_PrefabInstance: {fileID: 0}
  m_PrefabAsset: {fileID: 0}
  m_GameObject: {fileID: 0}
  m_Enabled: 1
  m_EditorHideFlags: 0
  m_Script: {fileID: 11500000, guid: 0488b6fba098dc44096c9ccc8a9a610e, type: 3}
  m_Name: Arrow
  m_EditorClassIdentifier: 
  ammoInfo:
    prefabKey: Arrow
    impactEffectKey: ArrowImpact
    impactSoundName: ArrowImpact
  baseDamage: 20
  speed: 10
  explosionRadius: 0
  slowMultiplier: 1
